/home/gab/prova2web/web-avaliacao2-2015-1/src/main/java/utfpr/faces/support/SessionBean.java
/home/gab/prova2web/web-avaliacao2-2015-1/src/main/java/if6ae/entity/InscricaoVisita.java
/home/gab/prova2web/web-avaliacao2-2015-1/target/generated-sources/annotations/if6ae/entity/InscricaoMinicurso_.java
/home/gab/prova2web/web-avaliacao2-2015-1/src/main/java/if6ae/entity/Visita.java
/home/gab/prova2web/web-avaliacao2-2015-1/src/main/java/if6ae/entity/EsperaMinicursoPK.java
/home/gab/prova2web/web-avaliacao2-2015-1/src/main/java/utfpr/faces/support/FacesBean.java
/home/gab/prova2web/web-avaliacao2-2015-1/src/main/java/if6ae/entity/InscricaoMinicurso.java
/home/gab/prova2web/web-avaliacao2-2015-1/src/main/java/if6ae/entity/InscricaoVisitaPK.java
/home/gab/prova2web/web-avaliacao2-2015-1/target/generated-sources/annotations/if6ae/entity/InscricaoPagamento_.java
/home/gab/prova2web/web-avaliacao2-2015-1/src/main/java/if6ae/entity/EsperaMinicurso.java
/home/gab/prova2web/web-avaliacao2-2015-1/target/generated-sources/annotations/if6ae/entity/Inscricao_.java
/home/gab/prova2web/web-avaliacao2-2015-1/target/generated-sources/annotations/if6ae/entity/EsperaMinicurso_.java
/home/gab/prova2web/web-avaliacao2-2015-1/target/generated-sources/annotations/if6ae/entity/Visita_.java
/home/gab/prova2web/web-avaliacao2-2015-1/target/generated-sources/annotations/if6ae/entity/InscricaoMinicursoPK_.java
/home/gab/prova2web/web-avaliacao2-2015-1/src/main/java/if6ae/jpa/InscricaoMinicursoJpa.java
/home/gab/prova2web/web-avaliacao2-2015-1/src/main/java/if6ae/jpa/InscricaoJpa.java
/home/gab/prova2web/web-avaliacao2-2015-1/src/main/java/if6ae/entity/InscricaoPagamento.java
/home/gab/prova2web/web-avaliacao2-2015-1/target/generated-sources/annotations/if6ae/entity/Categoria_.java
/home/gab/prova2web/web-avaliacao2-2015-1/target/generated-sources/annotations/if6ae/entity/InscricaoVisitaPK_.java
/home/gab/prova2web/web-avaliacao2-2015-1/src/main/java/utfpr/faces/support/PageBean.java
/home/gab/prova2web/web-avaliacao2-2015-1/src/main/java/if6ae/entity/Minicurso.java
/home/gab/prova2web/web-avaliacao2-2015-1/src/main/java/utfpr/faces/support/RequestBean.java
/home/gab/prova2web/web-avaliacao2-2015-1/target/generated-sources/annotations/if6ae/entity/EsperaMinicursoPK_.java
/home/gab/prova2web/web-avaliacao2-2015-1/target/generated-sources/annotations/if6ae/entity/InscricaoVisita_.java
/home/gab/prova2web/web-avaliacao2-2015-1/src/main/java/utfpr/faces/support/ApplicationBean.java
/home/gab/prova2web/web-avaliacao2-2015-1/src/main/java/if6ae/entity/InscricaoMinicursoPK.java
/home/gab/prova2web/web-avaliacao2-2015-1/src/main/java/if6ae/entity/Inscricao.java
/home/gab/prova2web/web-avaliacao2-2015-1/src/main/java/if6ae/entity/Categoria.java
/home/gab/prova2web/web-avaliacao2-2015-1/target/generated-sources/annotations/if6ae/entity/Minicurso_.java
